{
   "Heroes":[
      {
         "Name":"Batman",
         "Picture":"batman2012.jpeg",
         "Score":37
      },
      {
         "Name":"Superman",
         "Picture":"superman2006.jpeg",
         "Score":11
      },
      {
         "Name":"Spider-Man",
         "Picture":"spiderman2004.jpeg",
         "Score":15
      },
      {
         "Name":"Iron Man",
         "Picture":"ironman2008.jpeg",
         "Score":10
      }
   ]
}